Starting FIT to BIN of H=10, W10
FIT: Packing bin: 0
[[Item 0 [h=8][w=1]FIT @ w=0 | h=0 ]]
[[Item 1 [h=7][w=9]FIT @ w=1 | h=0 ]]
[[Item 2 [h=2][w=9]FIT @ w=0 | h=8 ]]
FIT: =================
FIT: Packing bin: 1
[[Item 3 [h=5][w=9]FIT @ w=0 | h=0 ]]
[[Item 4 [h=5][w=10]FIT @ w=0 | h=5 ]]
FIT: =================
FIT: Packing bin: 2
[[Item 5 [h=1][w=10]FIT @ w=0 | h=0 ]]
[[Item 6 [h=9][w=10]FIT @ w=0 | h=1 ]]
FIT: =================
FIT: Packing bin: 3
[[Item 7 [h=8][w=1]FIT @ w=0 | h=0 ]]
[[Item 8 [h=9][w=8]FIT @ w=1 | h=0 ]]
[[Item 9 [h=1][w=5]FIT @ w=0 | h=9 ]]
FIT: =================
FIT: Packing bin: 4
[[Item 10 [h=3][w=7]FIT @ w=0 | h=0 ]]
[[Item 11 [h=2][w=5]FIT @ w=0 | h=3 ]]
[[Item 12 [h=5][w=9]FIT @ w=0 | h=5 ]]
FIT: =================
FIT: Packing bin: 5
[[Item 13 [h=6][w=2]FIT @ w=0 | h=0 ]]
[[Item 14 [h=10][w=8]FIT @ w=2 | h=0 ]]
FIT: =================
FIT: Packing bin: 6
[[Item 15 [h=8][w=9]FIT @ w=0 | h=0 ]]
[[Item 16 [h=1][w=3]FIT @ w=0 | h=8 ]]
FIT: =================
FIT: Packing bin: 7
[[Item 17 [h=3][w=3]FIT @ w=0 | h=0 ]]
[[Item 18 [h=3][w=4]FIT @ w=3 | h=0 ]]
[[Item 19 [h=7][w=10]FIT @ w=0 | h=3 ]]
FIT: =================
FIT: Packing bin: 8
[[Item 20 [h=6][w=5]FIT @ w=0 | h=0 ]]
[[Item 21 [h=6][w=4]FIT @ w=5 | h=0 ]]
[[Item 22 [h=4][w=5]FIT @ w=0 | h=6 ]]
FIT: =================
FIT: Packing bin: 9
[[Item 23 [h=6][w=5]FIT @ w=0 | h=0 ]]
[[Item 24 [h=5][w=5]FIT @ w=5 | h=0 ]]
[[Item 25 [h=4][w=5]FIT @ w=0 | h=6 ]]
[[Item 26 [h=4][w=2]FIT @ w=5 | h=6 ]]
FIT: =================
FIT: Packing bin: 10
[[Item 27 [h=9][w=9]FIT @ w=0 | h=0 ]]
[[Item 28 [h=9][w=1]FIT @ w=9 | h=0 ]]
FIT: =================
FIT: Packing bin: 11
[[Item 29 [h=10][w=5]FIT @ w=0 | h=0 ]]
[[Item 30 [h=7][w=1]FIT @ w=5 | h=0 ]]
[[Item 31 [h=10][w=3]FIT @ w=6 | h=0 ]]
[[Item 32 [h=6][w=1]FIT @ w=9 | h=0 ]]
FIT: =================
FIT: Packing bin: 12
[[Item 33 [h=9][w=9]FIT @ w=0 | h=0 ]]
[[Item 34 [h=1][w=6]FIT @ w=0 | h=9 ]]
FIT: =================
FIT: Packing bin: 13
[[Item 35 [h=2][w=6]FIT @ w=0 | h=0 ]]
[[Item 36 [h=7][w=9]FIT @ w=0 | h=2 ]]
FIT: =================
FIT: Packing bin: 14
[[Item 37 [h=8][w=7]FIT @ w=0 | h=0 ]]
[[Item 38 [h=8][w=3]FIT @ w=7 | h=0 ]]
[[Item 39 [h=2][w=6]FIT @ w=0 | h=8 ]]
[[Item 40 [h=2][w=3]FIT @ w=6 | h=8 ]]
FIT: =================
FIT: Packing bin: 15
[[Item 41 [h=9][w=9]FIT @ w=0 | h=0 ]]
[[Item 42 [h=4][w=1]FIT @ w=9 | h=0 ]]
[[Item 43 [h=1][w=10]FIT @ w=0 | h=9 ]]
FIT: =================
FIT: Packing bin: 16
[[Item 44 [h=9][w=8]FIT @ w=0 | h=0 ]]
[[Item 45 [h=1][w=7]FIT @ w=0 | h=9 ]]
[[Item 46 [h=1][w=1]FIT @ w=7 | h=9 ]]
FIT: =================
FIT: Packing bin: 17
[[Item 47 [h=7][w=6]FIT @ w=0 | h=0 ]]
[[Item 48 [h=3][w=2]FIT @ w=6 | h=0 ]]
[[Item 49 [h=3][w=7]FIT @ w=0 | h=7 ]]
FIT: =================
FIT: Packing bin: 18
[[Item 50 [h=7][w=4]FIT @ w=0 | h=0 ]]
[[Item 51 [h=10][w=6]FIT @ w=4 | h=0 ]]
FIT: =================
FIT: Packing bin: 19
[[Item 52 [h=9][w=4]FIT @ w=0 | h=0 ]]
[[Item 53 [h=9][w=6]FIT @ w=4 | h=0 ]]
[[Item 54 [h=1][w=9]FIT @ w=0 | h=9 ]]
FIT: =================
FIT: Packing bin: 20
[[Item 55 [h=2][w=8]FIT @ w=0 | h=0 ]]
[[Item 56 [h=8][w=9]FIT @ w=0 | h=2 ]]
FIT: =================
FIT: Packing bin: 21
[[Item 57 [h=9][w=9]FIT @ w=0 | h=0 ]]
FIT: =================
FIT: Packing bin: 22
[[Item 58 [h=3][w=5]FIT @ w=0 | h=0 ]]
[[Item 59 [h=6][w=8]FIT @ w=0 | h=3 ]]
FIT: =================
FIT: Packing bin: 23
[[Item 60 [h=10][w=3]FIT @ w=0 | h=0 ]]
[[Item 61 [h=8][w=7]FIT @ w=3 | h=0 ]]
FIT: =================
FIT: Packing bin: 24
[[Item 62 [h=5][w=8]FIT @ w=0 | h=0 ]]
[[Item 63 [h=5][w=9]FIT @ w=0 | h=5 ]]
FIT: =================
FIT: Packing bin: 25
[[Item 64 [h=7][w=6]FIT @ w=0 | h=0 ]]
[[Item 65 [h=7][w=4]FIT @ w=6 | h=0 ]]
FIT: =================
FIT: Packing bin: 26
[[Item 66 [h=6][w=7]FIT @ w=0 | h=0 ]]
[[Item 67 [h=6][w=2]FIT @ w=7 | h=0 ]]
[[Item 68 [h=4][w=3]FIT @ w=0 | h=6 ]]
[[Item 69 [h=4][w=5]FIT @ w=3 | h=6 ]]
FIT: =================
FIT: Packing bin: 27
[[Item 70 [h=10][w=10]FIT @ w=0 | h=0 ]]
FIT: =================
FIT: Packing bin: 28
[[Item 71 [h=2][w=10]FIT @ w=0 | h=0 ]]
[[Item 72 [h=7][w=9]FIT @ w=0 | h=2 ]]
[[Item 73 [h=4][w=1]FIT @ w=9 | h=2 ]]
[[Item 74 [h=1][w=10]FIT @ w=0 | h=9 ]]
FIT: =================
FIT: Packing bin: 29
[[Item 75 [h=8][w=3]FIT @ w=0 | h=0 ]]
[[Item 76 [h=10][w=7]FIT @ w=3 | h=0 ]]
FIT: =================
FIT: Packing bin: 30
[[Item 77 [h=6][w=9]FIT @ w=0 | h=0 ]]
[[Item 78 [h=4][w=7]FIT @ w=0 | h=6 ]]
FIT: =================
FIT: Packing bin: 31
[[Item 79 [h=9][w=3]FIT @ w=0 | h=0 ]]
[[Item 80 [h=8][w=4]FIT @ w=3 | h=0 ]]
[[Item 81 [h=7][w=3]FIT @ w=7 | h=0 ]]
FIT: =================
FIT: Packing bin: 32
[[Item 82 [h=4][w=1]FIT @ w=0 | h=0 ]]
[[Item 83 [h=10][w=9]FIT @ w=1 | h=0 ]]
FIT: =================
FIT: Packing bin: 33
[[Item 84 [h=8][w=3]FIT @ w=0 | h=0 ]]
[[Item 85 [h=10][w=7]FIT @ w=3 | h=0 ]]
FIT: =================
FIT: Packing bin: 34
[[Item 86 [h=10][w=10]FIT @ w=0 | h=0 ]]
FIT: =================
FIT: Packing bin: 35
[[Item 87 [h=9][w=6]FIT @ w=0 | h=0 ]]
[[Item 88 [h=10][w=1]FIT @ w=6 | h=0 ]]
[[Item 89 [h=10][w=1]FIT @ w=7 | h=0 ]]
FIT: =================
FIT: Packing bin: 36
[[Item 90 [h=2][w=7]FIT @ w=0 | h=0 ]]
[[Item 91 [h=6][w=9]FIT @ w=0 | h=2 ]]
FIT: =================
FIT: Packing bin: 37
[[Item 92 [h=8][w=8]FIT @ w=0 | h=0 ]]
[[Item 93 [h=2][w=8]FIT @ w=0 | h=8 ]]
FIT: =================
FIT: Packing bin: 38
[[Item 94 [h=7][w=9]FIT @ w=0 | h=0 ]]
[[Item 95 [h=2][w=1]FIT @ w=9 | h=0 ]]
FIT: =================
FIT: Packing bin: 39
[[Item 96 [h=6][w=7]FIT @ w=0 | h=0 ]]
[[Item 97 [h=5][w=2]FIT @ w=7 | h=0 ]]
[[Item 98 [h=4][w=1]FIT @ w=9 | h=0 ]]
[[Item 99 [h=4][w=10]FIT @ w=0 | h=6 ]]
FIT: =================
Total used bins: 40
